[
{
  "pk": 1, 
  "model": "blogs.catblog", 
  "fields": {
    "ordencatblog": 1, 
    "catblog": "Conservaci\u00f3n y gobernanza de los recursos naturales"
  }
},
{
  "pk": 2, 
  "model": "blogs.catblog", 
  "fields": {
    "ordencatblog": 3, 
    "catblog": "Desarrollo de empresas rurales"
  }
},
{
  "pk": 3, 
  "model": "blogs.catblog", 
  "fields": {
    "ordencatblog": 0, 
    "catblog": "TIC y Software Libre"
  }
}
]
