[
{
  "pk": 3, 
  "model": "otras.aliado", 
  "fields": {
    "aliado": "Grupo de Inter\u00e9s por la Soberan\u00eda y Seguridad Alimentaria y Nutricional", 
    "web": null, 
    "descripcion_en": "", 
    "uri": "grupo-de-interes-por-la-soberania-y-seguridad-alimentaria-y-nutricional", 
    "direccion": "De donde fueron los sem\u00e1foros del Mercado Roberto Huembes 400 mts al sur, mano derecha.", 
    "correo": "soynica@soynica.org.ni", 
    "descripcion": "<p>&nbsp;</p>\r\n<div class=\"na-media na-image-left image-52\"><img title=\"1304099188_GISSAN1.jpg\" src=\"http://photos.simas.org.ni/2011/04/342_1304099188_GISSAN1.jpg\" alt=\"\" width=\"241\" height=\"244\" />\r\n<div class=\"info\">\r\n<p><strong><br /></strong></p>\r\n</div>\r\n</div>\r\n<p><strong>&iexcl;Ahora es el tiempo <br />de Soberan&iacute;a alimentaria!</strong><br /><br />El derecho a la alimentaci&oacute;n es el derecho a tener acceso a una alimentaci&oacute;n adecuada y suficiente, individual o colectiva, de manera regular y permanente, y a los medios necesarios para producirla, de forma que se corresponda con las&nbsp; tradiciones culturales de cada poblaci&oacute;n y que garantice una vida satisfactoria y digna.<br /><br /><strong>GISSAN</strong><br />El Grupo de Inter&eacute;s por la Soberan&iacute;a y Seguridad Alimentaria y Nutricional (GISSAN), se form&oacute; en abril del 2004, integrado por 40 organizaciones de la sociedad civil nicarag&uuml;ense y algunas de car&aacute;cter internacional.<br /><br /><strong>Nuestro origen y camino</strong><br />A partir de su conformaci&oacute;n busca promover a trav&eacute;s del Estado, en el &aacute;mbito municipal, departamental y nacional, la sensibilizaci&oacute;n para determinar acciones concretas en funci&oacute;n de mitigar este problema que limita el desarrollo humano.<br /><br />El GISSAN facilita ambientes para fortalecer procesos de reflexi&oacute;n, sensibilizaci&oacute;n y educaci&oacute;n sobre la Soberan&iacute;a y la Seguridad Alimentaria y Nutricional (SSAN) con el prop&oacute;sito de promover e incidir en el dise&ntilde;o, actualizaci&oacute;n e implementaci&oacute;n de Pol&iacute;ticas P&uacute;blicas que posibiliten el derecho humano a una alimentaci&oacute;n adecuada.<br /><strong><br />&iquest;Qu&eacute; nos moviliza?</strong><br />En el GISSAN trabajamos para incidir en el fomento de las pol&iacute;ticas p&uacute;blicas y de esta forma, promover la soberan&iacute;a alimentaria en Nicaragua. En ese sentido, tiene el car&aacute;cter de ser un foro permanente, reconocido como referente en la lucha por la soberan&iacute;a alimentaria. <br /><br />Pretendemos ser un espacio de debate permanente, donde se formulan y promueven propuestas de acciones en el tema de SSAN, as&iacute; como indicadores para monitoreo de los avances.<br /><br /><strong>Nuestras estrategias</strong></p>\r\n<ol>\r\n<li>Incidir en la elaboraci&oacute;n e implementaci&oacute;n de las Pol&iacute;ticas P&uacute;blicas y un marco regulatorio y jur&iacute;dico favorable al establecimiento de las condiciones de soberan&iacute;a alimentaria en Nicaragua.</li>\r\n<li>Promover la soberan&iacute;a alimentaria a trav&eacute;s de la educaci&oacute;n, sensibilizaci&oacute;n, divulgaci&oacute;n, capacitaci&oacute;n e intercambio de experiencias a organizaciones, comunidades, familias, funcionarios p&uacute;blicos.</li>\r\n<li>Fortalecer al GISSAN como Foro Permanente y de amplio debate sobre la Soberan&iacute;a Alimentaria.</li>\r\n</ol>\r\n<p><br /><strong>Nuestra contribuci&oacute;n</strong><br /><br /></p>\r\n<ol>\r\n<li>Colabora en la elaboraci&oacute;n y consulta de la Ley de Soberan&iacute;a y Seguridad\r\n<div class=\"na-media na-image-right image-55\"><img title=\"1304099478_leySSAA1.jpg\" src=\"http://photos.simas.org.ni/2011/04/288_1304099478_leySSAA1.jpg\" alt=\"\" width=\"232\" height=\"299\" />\r\n<div class=\"info\">\r\n<p>&nbsp;</p>\r\n</div>\r\n</div>\r\nAlimentaria y Nutricional de Nicaragua, Ley 693, aprobada por la Asamblea Nacional de Nicaragua el 18 de junio 2009. La ley permitir&aacute; planificar y ejecutar pol&iacute;ticas y acciones que garanticen la producci&oacute;n m&iacute;nima de alimentos para asegurar el abastecimiento y consumo entre la poblaci&oacute;n de Nicaragua.</li>\r\n<li>Promueve y establece un Observatorio de Soberan&iacute;a y Seguridad Alimentaria y Nutricional para generar un sistema de informaci&oacute;n que sirva como punto de referencia y de seguimiento a indicadores. </li>\r\n<li>Promover la verificaci&oacute;n de la situaci&oacute;n de hambre, Seguridad y Soberan&iacute;a Alimentaria en los municipios vulnerables en coordinaci&oacute;n con la sociedad civil en territorios, autoridades municipales y programas de gobierno para crear las Comisiones Municipales para la Soberan&iacute;a y la Seguridad Alimentaria y Nutricional (COMUSSAN).</li>\r\n</ol>\r\n<p><br /><strong>Alianzas para el cambio</strong><br />GISSAN mantiene y fomenta alianzas con redes nacionales, como el Grupo Promotor de la Agricultura Ecol&oacute;gica (GPAE), la Campa&ntilde;a Semillas de Identidad y coordinaciones inter-institucionales con entidades del Estado y de Cooperaci&oacute;n Internacional.<br /><br />A nivel centroamericano con la Red Centroamericana por la Soberan&iacute;a y la Seguridad Alimentaria y Nutricional (REDCASSAN).<br /><br /><strong>Contactos:</strong></p>\r\n<p>Manuel Salvador D&iacute;az Medina<br />Coordinador - GISSAN<br />Telf. 22331501 Ext.243<br />Cel. 89176796<br />Id Skipe compuman86</p>\r\n<p><a href=\"mailto:coordinacion.gissan@gmail.com\">coordinacion.gissan@gmail.com</a></p>\r\n<p>&nbsp;</p>\r\n<p>&nbsp;</p>\r\n<p style=\"margin-bottom: 0cm;\"><span style=\"color: #000080;\"><span lang=\"zxx\"><span style=\"text-decoration: underline;\"><span style=\"font-family: URW Gothic L,Arial Unicode MS,sans-serif;\"><br /></span></span></span></span></p>", 
    "logo": ""
  }
},
{
  "pk": 7, 
  "model": "otras.aliado", 
  "fields": {
    "aliado": "Grupo Promotor de la Agricultura Ecol\u00f3gica", 
    "web": null, 
    "descripcion_en": "", 
    "uri": "grupo-promotor-de-la-agricultura-ecologica", 
    "direccion": "", 
    "correo": "gpae@gpae.net", 
    "descripcion": "<p>El Grupo Promotor de la Agricultura Ecol&oacute;gica (GPAE), entiende la <strong>agricultura ecol&oacute;gica</strong>, como un sistema integrado de pr&aacute;cticas de producci&oacute;n que sirven de sustento a una opci&oacute;n de vida y que expresa la armon&iacute;a entre el ser humano y sus semejantes, la naturaleza y el medio ambiente.</p>\r\n<p>&nbsp;</p>\r\n<p align=\"JUSTIFY\">&nbsp;</p>\r\n<p>\r\n<div class=\"na-media na-image-right image-47\"><img title=\"1303867237_Logo GPAE1.jpg\" src=\"http://photos.simas.org.ni/2011/04/288_1303867237_Logo GPAE1.jpg\" alt=\"\" width=\"288px\" />\r\n<div class=\"info\">\r\n<p>&nbsp;</p>\r\n</div>\r\n</div>\r\n</p>\r\n<p>La agricultura ecol&oacute;gica o sostenible es al mismo tiempo un proceso educativo que permite:</p>\r\n<ol>\r\n<li>\r\n<p>Mejorar \tel nivel de ingreso y los niveles de soberan&iacute;a y seguridad \talimentaria y nutricional</p>\r\n</li>\r\n<li>\r\n<p>Dar \tmayor importancia al aspecto humano y ecol&oacute;gico que al aspecto \ttecnol&oacute;gico/mercantil.</p>\r\n</li>\r\n<li>\r\n<p>Incorporar \tlos flujos naturales de energ&iacute;a solar y lunar al proceso \tproductivo.</p>\r\n</li>\r\n<li>\r\n<p>Propiciar \tla unidad de la familia como sujetos que disponen de una estrategia \tde desarrollo que es promovida con una visi&oacute;n cr&iacute;tica y \tpropositiva y que les posibilita una mayor de capacidad de gesti&oacute;n \te incidencia.</p>\r\n</li>\r\n<li>\r\n<p lang=\"es-NI\" align=\"JUSTIFY\">Trabaja \tordenada y planificadamente la finca en base a la interrelaci&oacute;n con \tla comunidad, la cuenca y el municipio, diversificaci&oacute;n para \tproducir y almacenar alimentos para todo el a&ntilde;o y crear mecanismos \testables y adaptables que facilitan la comercializaci&oacute;n de los \texcedentes que permita el incremento de los ingresos.</p>\r\n</li>\r\n</ol>\r\n<p align=\"JUSTIFY\"><strong>Misi&oacute;n</strong></p>\r\n<p align=\"JUSTIFY\">GPAE facilita y articular hombres, mujeres y j&oacute;venes, integrados en organizaciones, instituciones, cooperativas comprometidos con la innovaci&oacute;n y fomento de la agricultura ecol&oacute;gica, como alternativa  para conseguir la soberan&iacute;a y seguridad alimentaria nutricional, promoviendo un desarrollo sostenible, mediante procesos de aprendizaje, investigaci&oacute;n, comunicaci&oacute;n y la incidencia pol&iacute;tica.</p>\r\n<p align=\"JUSTIFY\">&nbsp;</p>\r\n<p align=\"JUSTIFY\"><strong>Visi&oacute;n</strong></p>\r\n<p lang=\"es-NI\" align=\"JUSTIFY\">Somos un espacio de articulaci&oacute;n que contribuye al desarrollo de la agricultura ecol&oacute;gica con el prop&oacute;sito de mejorar las condiciones de vida de las familias rurales y aportar al manejo racional de los recursos naturales y medio ambiente a trav&eacute;s procesos de desarrollo sostenible centrado en el ser humano.</p>\r\n<p lang=\"es-NI\" align=\"JUSTIFY\">&nbsp;</p>\r\n<p lang=\"es-NI\" align=\"JUSTIFY\">---------------------------</p>\r\n<p lang=\"es-NI\" align=\"JUSTIFY\">Coordinadora del GPAE</p>\r\n<p lang=\"es-NI\" align=\"JUSTIFY\">Adela Guerrero</p>\r\n<p lang=\"es-NI\" align=\"JUSTIFY\"><a href=\"mailto:asociacion_nochari@yahoo.es\">asociacion_nochari@yahoo.es</a></p>\r\n<p lang=\"es-NI\" align=\"JUSTIFY\">&nbsp;</p>\r\n<p lang=\"es-NI\" align=\"JUSTIFY\">Facilitadora nacional:</p>\r\n<p lang=\"es-NI\" align=\"JUSTIFY\">Lourdes Garc&iacute;a</p>\r\n<p lang=\"es-NI\" align=\"JUSTIFY\"><a href=\"mailto:gpae@gpae.net\">gpae@gpae.net</a></p>\r\n<p lang=\"es-NI\" align=\"JUSTIFY\">&nbsp;</p>\r\n<p style=\"margin-bottom: 0cm; font-weight: normal; text-decoration: none; text-align: left;\" lang=\"es-NI\"><span style=\"color: #000000;\"><span style=\"font-family: Liberation Sans,Arial,sans-serif;\"><span style=\"font-size: x-small;\"><br /></span></span></span></p>", 
    "logo": ""
  }
},
{
  "pk": 8, 
  "model": "otras.aliado", 
  "fields": {
    "aliado": "Red Centroamericana de Acci\u00f3n  por el  Agua", 
    "web": null, 
    "descripcion_en": "", 
    "uri": "red-centroamericana-de-accion-por-el-agua", 
    "direccion": "", 
    "correo": "", 
    "descripcion": "<p>&nbsp;</p>\r\n<div class=\"na-media na-image-left image-45\"><img title=\"1303857730_FANCA-1.jpg\" src=\"http://photos.simas.org.ni/2011/04/342_1303857730_FANCA-1.jpg\" alt=\"\" width=\"288px\" />\r\n<div class=\"info\">\r\n<p>&nbsp;</p>\r\n</div>\r\n</div>\r\n<p>Freshwater Action Network - Am&eacute;rica Central (FANCA) es una red de organizaciones no gubernamentales y organizaciones de la Sociedad Civil que trabajan en 7 pa&iacute;ses de Am&eacute;rica Central.</p>\r\n<p>&nbsp;</p>\r\n<p>&nbsp;</p>\r\n<p>FANCA coordinar actividades de promoci&oacute;n y actividades de investigaci&oacute;n, facilitar el aprendizaje y la comunicaci&oacute;n entre sus miembros, y llevar la riqueza de la experiencia colectiva a eventos regionales e internacionales.</p>\r\n<p>&nbsp;</p>\r\n<p>FANCA tiene un fuerte enfoque en la gesti&oacute;n del agua basada en la comunidad, la defensa y el derecho al agua y al saneamiento.</p>\r\n<p lang=\"es-NI\" align=\"JUSTIFY\">&nbsp;</p>\r\n<p lang=\"es-NI\" align=\"JUSTIFY\">&nbsp;</p>\r\n<p style=\"text-align: left;\" lang=\"es-NI\"><strong>&iquest;Qu&eacute; hacemos?</strong></p>\r\n<p style=\"text-align: left;\" lang=\"es-NI\">&nbsp;</p>\r\n<ol>\r\n<li>\r\n<p lang=\"es-NI\" align=\"JUSTIFY\">Incidir \tcomo red en pol&iacute;ticas y estrategias de gesti&oacute;n de agua y \tsaneamiento.</p>\r\n</li>\r\n<li>\r\n<p lang=\"es-NI\" align=\"JUSTIFY\">Participar \ten espacios formales en la elaboraci&oacute;n de pol&iacute;ticas h&iacute;dricas en \tlos diversos &aacute;mbitos.</p>\r\n</li>\r\n<li>\r\n<p lang=\"es-NI\" align=\"JUSTIFY\">Promover \tprocesos de di&aacute;logo y negociaci&oacute;n entre los diferentes actores \tsociales e institucionales.</p>\r\n</li>\r\n<li>\r\n<p lang=\"es-NI\" align=\"JUSTIFY\">Promover \tla participaci&oacute;n de actores locales y nacionales en la gesti&oacute;n del \tagua y saneamiento.</p>\r\n</li>\r\n<li>\r\n<p lang=\"es-NI\" align=\"JUSTIFY\">Apoyar \ta miembros de la red en sus acciones relacionadas con gesti&oacute;n del \tagua y saneamiento.</p>\r\n</li>\r\n<li>\r\n<p lang=\"es-NI\" align=\"JUSTIFY\">Promover \tel reconocimiento pol&iacute;tico de los miembros de la red.</p>\r\n</li>\r\n</ol>\r\n<p lang=\"es-NI\" align=\"JUSTIFY\">&nbsp;</p>\r\n<p lang=\"es-NI\" align=\"JUSTIFY\">&nbsp;----------------------------------</p>\r\n<p lang=\"es-NI\" align=\"JUSTIFY\"><strong>Coordinador Regional</strong></p>\r\n<p lang=\"es-NI\" align=\"JUSTIFY\">Jorge Mora Portuguez-</p>\r\n<p lang=\"es-NI\" align=\"JUSTIFY\">Tel&eacute;fono: + 506 2280 6516</p>\r\n<p lang=\"es-NI\" align=\"JUSTIFY\">Fax: + 506 2281 3290</p>\r\n<p lang=\"es-NI\" align=\"JUSTIFY\">ARCA (Asociaci&oacute;n Regional Centroamericana para el Agua y el Ambiente)</p>\r\n<p lang=\"es-NI\" align=\"JUSTIFY\">P. O. Box 1852, 2050</p>\r\n<p lang=\"es-NI\" align=\"JUSTIFY\">Costa Rica</p>\r\n<p>&nbsp;</p>", 
    "logo": ""
  }
},
{
  "pk": 9, 
  "model": "otras.aliado", 
  "fields": {
    "aliado": "Red Nacional de Comit\u00e9 de Agua Potable y Saneamiento", 
    "web": null, 
    "descripcion_en": "", 
    "uri": "red-nacional-de-comite-de-agua-potable-y-saneamiento", 
    "direccion": "", 
    "correo": "", 
    "descripcion": "<p lang=\"es-NI\" align=\"JUSTIFY\">Un grupo de hombres y mujeres electos por la comunidad, que se encargan de organizar a la poblaci&oacute;n, coordinar acciones con otras instancias presentes en la comunidad y/o el municipio para realizar gestiones organizativas y operativas para llevar el agua y saneamiento a sus hogares.</p>\r\n<p>&nbsp;</p>\r\n<p lang=\"es-NI\" align=\"JUSTIFY\">&nbsp;</p>\r\n<p lang=\"es-NI\" align=\"JUSTIFY\"><strong>Entre sus funciones:\r\n<div class=\"na-media na-image-right image-124\"><strong><img title=\"1308088247_caps_plan.jpg\" src=\"http://photos.simas.org.ni/2011/06/288_1308088247_caps_plan.jpg\" alt=\"\" width=\"273\" height=\"343\" /></strong>\r\n<div class=\"info\">\r\n<p>&nbsp;</p>\r\n</div>\r\n</div>\r\n</strong></p>\r\n<ol>\r\n<li>\r\n<p lang=\"es-NI\" align=\"JUSTIFY\">Solicita \tante las autoridades municipales la construcci&oacute;n de obras de agua \tpotable y saneamiento para las comunidades</p>\r\n</li>\r\n<li>\r\n<p lang=\"es-NI\" align=\"JUSTIFY\">Orienta, \tdirige y organiza la construcci&oacute;n de las obras</p>\r\n</li>\r\n<li>\r\n<p lang=\"es-NI\" align=\"JUSTIFY\">Vela \tpor el cuidado y mantenimiento de las obras</p>\r\n</li>\r\n<li>\r\n<p lang=\"es-NI\" align=\"JUSTIFY\">Apoya \tlas iniciativas de campa&ntilde;as de salud, reforestaci&oacute;n y conservaci&oacute;n \tdel medio ambiente</p>\r\n</li>\r\n</ol>\r\n<p lang=\"es-NI\" align=\"JUSTIFY\"><strong>Coordinadora Nacional CAPS</strong></p>\r\n<ol>\r\n<li>\r\n<p lang=\"es-NI\" align=\"JUSTIFY\">Juan \tde Dios Benavides Paz, Coordinador Nacional</p>\r\n</li>\r\n<li>\r\n<p lang=\"es-NI\" align=\"JUSTIFY\">Esperanza \tSoza, vice coordinadora</p>\r\n</li>\r\n<li>\r\n<p lang=\"es-NI\" align=\"JUSTIFY\">Jos&eacute; \tFrancisco Salgado, Secretario.</p>\r\n</li>\r\n<li>\r\n<p lang=\"es-NI\" align=\"JUSTIFY\">Leonel \tCalero, Tesorero.</p>\r\n</li>\r\n<li>\r\n<p lang=\"es-NI\" align=\"JUSTIFY\">Francisco \tL&oacute;pez Galan, Fiscal.</p>\r\n</li>\r\n<li>\r\n<p lang=\"es-NI\" align=\"JUSTIFY\">Elian \tBivas, Vocal 1</p>\r\n</li>\r\n<li>\r\n<p lang=\"es-NI\" align=\"JUSTIFY\">Janeth \tZamora, Vocal</p>\r\n</li>\r\n</ol>\r\n<p lang=\"es-NI\" align=\"JUSTIFY\">Coordinador Red CAPS</p>\r\n<p lang=\"es-NI\" align=\"JUSTIFY\">Juan de Dios Benavides Paz</p>\r\n<p align=\"JUSTIFY\"><span style=\"text-decoration: underline;\"><a href=\"mailto:redcapsnicaragua@gmail.com\">redcapsnicaragua@gmail.com</a></span></p>", 
    "logo": ""
  }
},
{
  "pk": 10, 
  "model": "otras.aliado", 
  "fields": {
    "aliado": "Movimiento de Productores y Productoras Agroecol\u00f3gico y Org\u00e1nico de Nicaragua", 
    "web": null, 
    "descripcion_en": "", 
    "uri": "movimiento-de-productores-y-productoras-agroecologico-y-organico-de-nicaragua", 
    "direccion": "", 
    "correo": "", 
    "descripcion": "<p>El Movimiento de Productoras y Productores Agroecol&oacute;gico y Org&aacute;nico (MAONIC), es un espacio que busca contribuir a mejorar la calidad de vida de  las familias agricultoras y de consumidores en general a trav&eacute;s del  posicionamiento de la producci&oacute;n agroecol&oacute;gica y org&aacute;nica en la agenda  nacional.</p>\r\n<p>&nbsp;</p>\r\n<p>&nbsp;</p>\r\n<p>&nbsp;</p>\r\n<p>El MAONIC es un plataforma nacional que nace a partir del a&ntilde;o 2008. Esta integrada por familias campesinas, productores, productoras, organizaciones de base como cooperativas y gremios agrupados bajo la bandera de la producci&oacute;n agroecol&oacute;gica y org&aacute;nica.</p>\r\n<p>&nbsp;</p>\r\n<p>A lo largo de todo el a&ntilde;o 2009 producto de la alianza entre la Federaci&oacute;n Nacional de Cooperativas (FENACOOP), la Alianza Carazo, el Programa Campesino a Campesino (PCAC)y UNAG-CafeCru y con el apoyo de las organizaciones cooperantes como VECOMA y RUTA, inici&aacute; a consolidar su estructura organizativa mediante la conformaci&oacute;n de comisiones de coordinaci&oacute;n y consejos departamentales en todo el pa&iacute;s.</p>\r\n<p>&nbsp;</p>\r\n<p>Actualmente MAONIC esta integrado por 13 comisiones de coordinaci&oacute;n departamentales, cada una de las cuales eligi&oacute; un representante para el consejo departamental.</p>\r\n<p>&nbsp;</p>\r\n<p><strong>Objetivo pol&iacute;tico</strong></p>\r\n<ol>\r\n<li>\r\n<p>Que \tlos productores y otros actores de la producci&oacute;n agroecol&oacute;gica y \torg&aacute;nica, a nivel nacional y territorial, ampl&iacute;en su incidencia en \tla implementaci&oacute;n de la pol&iacute;tica, legislaciones, regulaciones y \tprogramas concretos que fomenten y desarrollen la agricultura \torg&aacute;nica y agroecol&oacute;gica nicarag&uuml;ense.</p>\r\n</li>\r\n</ol>\r\n<p>Este objetivo de proyecto a su vez apunta a un objetivo de desarrollo en el cu&aacute;l se quiere que las  familias y organizaciones campesinas implementan agricultura ecol&oacute;gica y org&aacute;nica en mayor escala para mejorar sus capacidades para enfrentar la crisis de alimentos y los riesgos de cambio clim&aacute;tico.</p>\r\n<p>&nbsp;</p>\r\n<p>Contacto:</p>\r\n<p>Orlando Valverde</p>\r\n<p><a href=\"mailto:agroecologico@fenacoop.org.ni\">agroecologico@fenacoop.org.ni</a></p>", 
    "logo": "1308003286_maonic.png"
  }
},
{
  "pk": 11, 
  "model": "otras.aliado", 
  "fields": {
    "aliado": "Coalici\u00f3n por el Derecho al Agua", 
    "web": null, 
    "descripcion_en": "", 
    "uri": "coalicion-por-el-derecho-al-agua", 
    "direccion": "", 
    "correo": "manejo-informacion@simas.org.ni", 
    "descripcion": "<p lang=\"es-ES\">&nbsp;</p>\r\n<p lang=\"es-ES\">La esencia de la lucha por el derecho de acceso a agua y saneamiento es el derecho a la vida....El acto de privatizaci&oacute;n es un crimen social.<br /><br /></p>\r\n<p><strong>\r\n<div class=\"na-media na-image-left image-88\"><strong><img title=\"1305566114_coda2.jpg\" src=\"http://photos.simas.org.ni/2011/05/288_1305566114_coda2.jpg\" alt=\"\" width=\"288px\" /></strong>\r\n<div class=\"info\">Foto Mart&iacute;n Cuadra-SIMAS</div>\r\n</div>\r\n</strong><strong> Qui&eacute;nes Somos</strong></p>\r\n<p lang=\"es-ES\">La Coalici&oacute;n de Organizaciones por el Derecho al Agua, (CODA) es un espacio de coordinaci&oacute;n integrados por grupos organizados de sociedad civil -ONG, gremios, movimiento social- que se unieron frente a los intentos de privatizaci&oacute;n del recurso agua y por la demanda de poblaci&oacute;n de comunidades rurales y urbanas. La CODA se conform&oacute; en el a&ntilde;o 2005. <br /><br /></p>\r\n<p>&nbsp;</p>\r\n<p>&nbsp;</p>\r\n<p>&nbsp;</p>\r\n<p><strong>En qu&eacute; Creemos</strong></p>\r\n<p lang=\"es-ES\">Trabajamos bajo la premisa de que la esencia de la lucha por el derecho de acceso a agua y saneamiento es el derecho a la vida. El agua es un recurso natural limitado y un bien p&uacute;blico fundamental para la vida y la salud. El derecho humano al agua es indispensable para una vida con dignidad humana.&nbsp;</p>\r\n<p lang=\"es-ES\">&nbsp;</p>\r\n<p lang=\"es-ES\">Es un requisito para la realizaci&oacute;n de otros derechos humanos... La constante contaminaci&oacute;n, el agotamiento y la distribuci&oacute;n desigual del agua est&aacute;n agudizando la pobreza existente. <br /><br /></p>\r\n<p><strong>En qu&eacute; trabajamos</strong></p>\r\n<p lang=\"es-ES\">En la actualidad las organizaciones integrantes de la CODA han realizado m&uacute;ltiples esfuerzos con relaci&oacute;n a los recursos h&iacute;dricos en Nicaragua y que se han centrado en acciones de Monitoreo, Sensibilizaci&oacute;n e Incidencia, sobre la base de las experiencias y trabajo de sus miembros.<br /><br /></p>\r\n<p><strong>Qu&eacute; queremos</strong></p>\r\n<ol>\r\n<li>Contribuir a la construcci&oacute;n de una Estrategia de Trabajo para que la ciudadan&iacute;a defienda el derecho de acceso a agua, y saneamiento. </li>\r\n<li>Participar en la elaboraci&oacute;n de una Pol&iacute;tica de alianzas, desde la perspectiva de las organizaciones sin fines de lucro y el movimiento social, para la labor de incidencia por el recurso agua. </li>\r\n<li>Contribuir al mejoramiento del marco regulatorio del pa&iacute;s sobre la base de que el agua es un bien com&uacute;n. </li>\r\n<li>Participar en esfuerzos regionales, y continentales, que apunten a la defensa del recurso agua como bien com&uacute;n. </li>\r\n</ol>\r\n<p lang=\"es-ES\">&nbsp;</p>\r\n<p><strong>Nuestros aportes</strong></p>\r\n<ol>\r\n<li>Aporta a la consulta, elaboraci&oacute;n y aprobaci&oacute;n de la Ley General de Aguas\r\n<div class=\"na-media na-image-right image-40\"><img title=\"1303831477_Portada Informe agua.png\" src=\"http://photos.simas.org.ni/2011/04/288_1303831477_Portada Informe agua.png\" alt=\"\" width=\"222\" height=\"302\" /></div>\r\nNacionales, Ley 620, aprobada por la Asamblea Nacional en septiembre del a&ntilde;o 2007.</li>\r\n<li>Realizaci&oacute;n de Campa&ntilde;a de Comunicaci&oacute;n Social a trav&eacute;s de radios locales sobre el derecho de acceso al agua y al saneamiento, 2007-2009.</li>\r\n<li>Fortalecimiento de capacidades a grupos comunitarios para la socializaci&oacute;n de experiencias y formulaci&oacute;n de propuestas para la promoci&oacute;n del derecho de acceso al agua y al saneamiento, 2006-2009.</li>\r\n<li>Recomendaciones a la Oficina del Alto Comisionado para los Derechos Humanos con respecto al Examen Peri&oacute;dico Universal presentado por el Estado de Nicaragua, 2010.</li>\r\n<li>Realizaci&oacute;n del Informe sobre el Derecho Humano al Acceso de Agua Potable y\r\n<div class=\"na-media na-image-right image-40\">\r\n<div class=\"info\">\r\n<p>&nbsp;</p>\r\n</div>\r\n</div>\r\nSaneamiento en Nicaragua, 2010. El Informe tuvo como prop&oacute;sito conocer el estado actual sobre el cumplimiento del Derecho de acceso al agua potable y saneamiento b&aacute;sico sobre la base de la Meta del Milenio No. 10, derivada del ODM No. 7 y de los instrumentos nacionales e internacionales que contemplan el cumplimiento de Nicaragua, en el acceso al agua potable y saneamiento con &eacute;nfasis en el sector rural, a partir de las categor&iacute;as del derecho humano al agua.</li>\r\n</ol>\r\n<p lang=\"es-ES\"><br /><strong>Alianzas para el cambio </strong><br />CODA mantiene y fomenta alianzas con redes nacionales, la Red Nacional de Comit&eacute;s de Agua Potable y Saneamiento (REDCAPS) y a nivel regional con la Red Centroamericana de Acci&oacute;n por el Agua (FANCA), Ingenier&iacute;a Sin Fronteras (ISF).</p>\r\n<p lang=\"es-ES\">&nbsp;</p>\r\n<p>Organizaci&oacute;n facilitadora de la CODA:</p>\r\n<p>Maura Paladino, <a href=\"mailto:agua@humboldt.org.ni\">agua@humboldt.org.ni</a></p>\r\n<p><a href=\"http://www.humboldt.org.ni/\">http://www.humboldt.org.ni/</a></p>\r\n<p>&nbsp;</p>\r\n<p lang=\"es-ES\">&nbsp;</p>\r\n<p lang=\"es-ES\"><strong>Miembros CODA:</strong></p>\r\n<p lang=\"es-ES\"><strong><br /></strong></p>\r\n<p lang=\"es-ES\">Contactos:<br />Asociaci&oacute;n para el Desarrollo Integral Comunitario (ADIC)<br />Vilma P&eacute;rez, (8613-5364)<br />kilvil2@yahoo.es<br /><br />Asociaci&oacute;n de Educaci&oacute;n y Comunicaci&oacute;n La Cuculmeca <br />Harmhel Dalla Torre (2782-3578/2782-3579)<br />desarrollo@cuculmeca.org<br /><br />Centro Alexander Von Humboldt <br />Maura Paladino, (2249-8922 /2250-6454) <br />agua@humboldt.org.ni <br /><br />Centro Nicarag&uuml;ense de Derechos Humanos (CENIDH) <br />Norwin Solano (222-2563)<br />nsolano@cenidh.org<br /><br />Centro Intereclesial de Estudio Teol&oacute;gicos y Sociales (CIEETS)<br />Lucrecia Mendoza<br />lucreciamendozamartinez@hotmail.com<br /><br />Colectivo de Mujeres de Matagalpa &nbsp;<br />Yalkiria Pineda (2772-2458, 772-4462)<br />yalkiriapineda@yahoo.es<br /><br />Comit&eacute; de Acci&oacute;n Global. <br />Clemente Mart&iacute;nez, (2222-7955)<br />comitenic@hotmail.com<br /><br />Grupo de Promoci&oacute;n de la Agricultura Ecol&oacute;gica (GPAE)<br />Lourdes Garc&iacute;a (2268-2302)<br />gpae@gpae.net<br /><br />Liga de Defensa del Consumidor de Nicaragua (LIDECONIC) <br />Deydania Tercero (2252-9049)<br />lideconi@enitel.net.ni<br /><br />Organizaci&oacute;n para el Desarrollo Econ&oacute;mico Social (ODESAR) <br />Javier Mendoza (772-3629/ 772-2290)<br />javiermendoza2006@yahoo.com<br /><br />Servicio de Informaci&oacute;n Mesoamericano sobre Agricultura Sostenible (SIMAS) <br />Mart&iacute;n Cuadra, (2268-2302)<br />manejo-informacion@simas.org.ni</p>\r\n<p>&nbsp;</p>", 
    "logo": ""
  }
},
{
  "pk": 12, 
  "model": "otras.aliado", 
  "fields": {
    "aliado": "Red Global de Aprendizaje", 
    "web": null, 
    "descripcion_en": "", 
    "uri": "red-global-de-aprendizaje", 
    "direccion": "", 
    "correo": "coordinacion@simas.org.ni", 
    "descripcion": "<h3><strong>Reformulando el debate: Red Global de Aprendizaje</strong></h3>\r\n<p>&nbsp;</p>\r\n<p>El proceso de globalizaci&oacute;n, y sobre todo, la crisis alimentaria de 2007-2008 y 2010,han renovado el inter&eacute;s en la agricultura y los agricultores a peque&ntilde;a escala.</p>\r\n<p>&nbsp;</p>\r\n<div class=\"na-media na-image-left image-115\"><img title=\"1307912022_peque&ntilde;os.png\" src=\"http://photos.simas.org.ni/2011/06/288_1307912022_peque&ntilde;os.png\" alt=\"\" width=\"221\" height=\"309\" />\r\n<div class=\"info\">\r\n<p>&nbsp;</p>\r\n</div>\r\n</div>\r\n<p>Gran parte de este renovado inter&eacute;s se ha enfocado e la vinculaci&oacute;n de los productores con los mercados. Gobierno, cooperaci&oacute;n internacional y comunidad , al igual que actores privados, han adoptado el concepto de &ldquo;mercado que favorezca a la poblaci&oacute;n pobre&rdquo;, con la expectativa de que, la inserci&oacute;n en el mercado, los productores de peque&ntilde;a escala puedan sobrevivir y hasta prosperar.</p>\r\n<p>&nbsp;</p>\r\n<p>La Red Global de Aprendizaje se conformo en el 2010 y re&uacute;ne personas destacadas del sector acad&eacute;mico, instituciones de apoyo, representantes de organizaciones, organizaci&oacute;n de productores de Am&eacute;rica Latina, Asia y &Aacute;frica.</p>\r\n<p>&nbsp;</p>\r\n<p>Actualmente existe 15 miembros de Uganda, Kenia, India, Indonesia, Guatemala, Nicaragua (SIMAS), Bolivia, Per&uacute; y que esta siendo apoya desde el Programa de Conocimiento de Hivos.</p>\r\n<p>&nbsp;</p>\r\n<p>Se ha concebido com&uacute;n grupo o espacio abierto, dispuesto a acoger a todas las personas que desean aportar nuevas y cuestionadoras perspectivas para intercambiar conocimientos, sea desde lo te&oacute;rico o pr&aacute;ctico.</p>\r\n<p>&nbsp;</p>\r\n<p>En la red se entiende la investigaci&oacute;n como el trabajo de producci&oacute;n, integraci&oacute;n y difusi&oacute;n de conocimientos. Se trata de un proceso de aprendizaje donde los participantes no solamente cuestionan las ideas y pr&aacute;cticas de otros miembros sino tambi&eacute;n reflexionan sobre su propia contribuci&oacute;n y el impacto de la misma capacidad de los productores de peque&ntilde;a escala de adoptar posiciones para tomar decisiones acertadas y actuar sobre ellas.</p>\r\n<p>&nbsp;</p>\r\n<p>Las principales actividades de la red se estructuran en torno a un plan estructurado y concertado:&nbsp;</p>\r\n<ol>\r\n<li>Investigaci&oacute;n-acci&oacute;n</li>\r\n<li>Eventos nacionales, regionales e global</li>\r\n<li>Producci&oacute;n de v&iacute;deos</li>\r\n<li>Participaci&oacute;n en seminarios motivadores organizados por el Programa de Conocimiento</li>\r\n<li>Jornadas de aprendizaje</li>\r\n</ol>\r\n<p>La agricultura y los peque&ntilde;os agricultores de peque&ntilde;a escala son el centro de atenci&oacute;n despu&eacute;s de la ultima crisis alimentaria. El nuevo contexto y la Red de Aprendizaje invitan a todos y todas los pensadores, colaboradores y practicantes innovadores a colaborar para re-formular este debate.</p>\r\n<p>&nbsp;</p>\r\n<p>Para mayor informaci&oacute;n visitar <a title=\"Programa de Conocimiento\" href=\"http://www.hivos.net/esl\" target=\"_blank\">Programa de Conocimientos HIVOS</a></p>\r\n<p>&nbsp;</p>\r\n<p>&nbsp;</p>\r\n<p>&nbsp;</p>\r\n<p>&nbsp;</p>\r\n<p>&nbsp;</p>\r\n<p>&nbsp;</p>\r\n<p>&nbsp;</p>\r\n<p>&nbsp;</p>\r\n<p>&nbsp;</p>\r\n<p>&nbsp;</p>\r\n<p>&nbsp;</p>\r\n<p>&nbsp;</p>\r\n<p>&nbsp;</p>", 
    "logo": ""
  }
},
{
  "pk": 13, 
  "model": "otras.aliado", 
  "fields": {
    "aliado": "Red Nacional de Informaci\u00f3n y Documentaci\u00f3n Agropecuaria", 
    "web": null, 
    "descripcion_en": "", 
    "uri": "red-nacional-de-informacion-y-documentacion-agropecuaria", 
    "direccion": "", 
    "correo": "cidoc@simas.org.ni", 
    "descripcion": "<h3><strong>Historia</strong></h3>\r\n<p>Se crea en 1980 por gestiones del Centro Nicarag&uuml;ense de Informaci&oacute;n Tecnol&oacute;gica (CENIT-FINAPRI) en colaboraci&oacute;n con el IICA-CIDIA (Centro Interamericano de Documentaci&oacute;n Agr&iacute;cola).</p>\r\n<p>&nbsp;</p>\r\n<p>En 1984 con la definici&oacute;n del Centro Nacional de Informaci&oacute;n y Documentaci&oacute;n Agropecuaria (CENIDA) de la Universidad Nacional Agraria como sistema de informaci&oacute;n, RENIDA es coordinada por el CENIDA, el que inicia un proceso de fortalecimiento de la Red.</p>\r\n<p>&nbsp;</p>\r\n<p>En 1997, la Red logra una mayor consolidaci&oacute;n de su estructura organizativa a trav&eacute;s de un an&aacute;lisis exhaustivo de su funcionamiento y perspectiva mediante la revisi&oacute;n y actualizaci&oacute;n de sus estatutos y reglamentos.</p>\r\n<p>&nbsp;</p>\r\n<p><strong>Misi&oacute;n:</strong> Somos una Red de coordinaci&oacute;n e intercambio que facilita procesos de comunicaci&oacute;n, organizaci&oacute;n, manejo,\r\n<div class=\"na-media na-image-right image-141\"><img title=\"1308937944_Documentacion14.jpg\" src=\"http://photos.simas.org.ni/2011/06/288_1308937944_Documentacion14.jpg\" alt=\"\" />\r\n<div class=\"info\">\r\n<p>&nbsp;</p>\r\n</div>\r\n</div>\r\nacceso y difusi&oacute;n de la informaci&oacute;n y documentaci&oacute;n agraria y a fin, acorde a las necesidades de desarrollo que demanda el pa&iacute;s.</p>\r\n<p>&nbsp;</p>\r\n<p><strong>Visi&oacute;n:</strong> La RENIDA es una instancia con proyecci&oacute;n nacional e internacional, integrada por instituciones del sector agrario y afines; rectora en el manejo y organizaci&oacute;n de informaci&oacute;n y documentaci&oacute;n agraria a trav&eacute;s de diversos medios y tecnolog&iacute;as que facilitan el acceso y difusi&oacute;n de la misma para contribuir al desarrollo del pa&iacute;s.</p>\r\n<p>&nbsp;</p>\r\n<p><strong>Objetivos:</strong></p>\r\n<ol>\r\n<li>Organizar, sistematizar la informaci&oacute;n nacional agraria y facilitar el acceso mediante los servicios que ofrecen las Unidades de Informaci&oacute;n.</li>\r\n<li>Promover el intercambio de informaci&oacute;n del sector agrario entre los centros miembros de la RED.</li>\r\n<li>Contribuir al desarrollo de las Unidades de Informaci&oacute;n miembros, mediante la capacitaci&oacute;n y asistencia t&eacute;cnica de sus miembros.</li>\r\n<li>Promover el uso de la Metodolog&iacute;a AGRIS-FAO a fin de normalizar el an&aacute;lisis y recuperaci&oacute;n de la informaci&oacute;n a nivel nacional e internacional.</li>\r\n</ol>\r\n<p>Actualmente esta conformada por 27 miembros: centros de documentaci&oacute;n y de informaci&oacute;n, bibliotecas, de las instituciones educativas, de organizaciones vinculadas al desarrollo rural y agrario del pa&iacute;s.</p>\r\n<p>&nbsp;</p>\r\n<p>Mas informaci&oacute;n: <a href=\"http://www.renida.net.ni/\">http://www.renida.net.ni/</a></p>", 
    "logo": ""
  }
}
]
